module gitlab.com/prosp3r/meower

go 1.12

require (
	cloud.google.com/go v0.39.0 // indirect
	github.com/golang/mock v1.3.1 // indirect
	github.com/google/btree v1.0.0 // indirect
	github.com/google/pprof v0.0.0-20190515194954-54271f7e092f // indirect
	github.com/gorilla/mux v1.7.2
	github.com/gorilla/websocket v1.4.0
	github.com/kelseyhightower/envconfig v1.4.0
	github.com/kr/pty v1.1.4 // indirect
	github.com/lib/pq v1.1.1
	github.com/mailru/easyjson v0.0.0-20190403194419-1ea4449da983 // indirect
	github.com/nats-io/go-nats v1.7.2
	github.com/nats-io/nkeys v0.0.2 // indirect
	github.com/nats-io/nuid v1.0.1 // indirect
	github.com/olivere/elastic v6.2.18+incompatible
	github.com/pkg/errors v0.8.1 // indirect
	github.com/segmentio/ksuid v1.0.2
	github.com/tinrab/meower v0.0.0-20180527150729-a817049dd1e2
	github.com/tinrab/retry v1.0.0
	go.opencensus.io v0.22.0 // indirect
	golang.org/x/crypto v0.0.0-20190605123033-f99c8df09eb5 // indirect
	golang.org/x/exp v0.0.0-20190510132918-efd6b22b2522 // indirect
	golang.org/x/image v0.0.0-20190523035834-f03afa92d3ff // indirect
	golang.org/x/lint v0.0.0-20190409202823-959b441ac422 // indirect
	golang.org/x/mobile v0.0.0-20190509164839-32b2708ab171 // indirect
	golang.org/x/mod v0.1.0 // indirect
	golang.org/x/net v0.0.0-20190603091049-60506f45cf65 // indirect
	golang.org/x/oauth2 v0.0.0-20190604053449-0f29369cfe45 // indirect
	golang.org/x/sys v0.0.0-20190602015325-4c4f7f33c9ed // indirect
	golang.org/x/time v0.0.0-20190308202827-9d24e82272b4 // indirect
	golang.org/x/tools v0.0.0-20190603231351-8aaa1484dc10 // indirect
	google.golang.org/appengine v1.6.0 // indirect
	google.golang.org/genproto v0.0.0-20190530194941-fb225487d101 // indirect
	google.golang.org/grpc v1.21.1 // indirect
	honnef.co/go/tools v0.0.0-20190604153307-63e9ff576adb // indirect
)
